{
  "ILS": [
    {
      "id": 1,
      "question": "Ich verstehe etwas besser nachdem ich es",
      "answer1": "ausprobiert habe.",
      "answer2": "durchdacht habe."
    },
    {
      "id": 2,
      "question": "Ich würde mich eher als",
      "answer1": "realistisch bezeichnen.",
      "answer2": "innovativ bezeichnen."
    },
    {
      "id": 3,
      "question": "Wenn ich über gestern nachdenke, denke ich an",
      "answer1": "ein Bild.",
      "answer2": "Wörter."
    },
    {
      "id": 4,
      "question": "Ich neige dazu",
      "answer1": "Details eines Themas zu verstehen, aber die Gesamtstruktur bleibt unklar.",
      "answer2": "die Gesamtstruktur verstehen, aber die Details bleiben unklar."
    },
    {
      "id": 5,
      "question": "Wenn ich etwas Neues lerne, hilft es mir",
      "answer1": "darüber zu reden.",
      "answer2": "darüber nachzudenken"
    },
    {
      "id": 6,
      "question": "Wenn ich Lehrer wäre, würde ich lieber einen Kurs unterrichten, der",
      "answer1": "sich mit Fakten und realen Lebenssituationen befasst.",
      "answer2": "sich mit Ideen und Theorien befasst."
    },
    {
      "id": 7,
      "question": "Ich bevorzuge neue Informationen in",
      "answer1": "Bilder, Diagramme, Grafiken oder Karten.",
      "answer2": "schriftlichen Anweisungen oder mündlichen Informationen."
    },
    {
      "id": 8,
      "question": "Sobald ich",
      "answer1": "alle Teile verstanden habe, verstehe ich das Ganze.",
      "answer2": "das Ganze verstanden habe, sehe ich den Zusammenhang von den einzelnen Teilen."
    },
    {
      "id": 9,
      "question": "In einer Lerngruppe für ein schwieriges Thema",
      "answer1": "bringe ich mich ein und teile Ideen.",
      "answer2": "lehne ich mich zurück und höre zu."
    },
    {
      "id": 10,
      "question": "Ich finde es einfacher",
      "answer1": "Fakten zu lernen.",
      "answer2": "Konzepte zu lernen."
    },
    {
      "id": 11,
      "question": "In einem Buch mit vielen Bildern und Diagrammen, tendiere ich dazu",
      "answer1": "die Bilder und Diagramme genau anzuschauen.",
      "answer2": "mich auf den Text zu fokussieren."
    },
    {
      "id": 12,
      "question": "Wenn ich mathematische Probleme lösen muss,",
      "answer1": "arbeite ich mich normalerweise Schritt für Schritt zur Lösung vor.",
      "answer2": "sehe ich oft nur die Lösung, habe aber Schwierigkeiten die richtigen Schritte zu finden."
    },
    {
      "id": 13,
      "question": "In Kursen, die ich belegt habe,",
      "answer1": "lerne ich normalerweise viele Leute kennen.",
      "answer2": "lerne ich eher selten Leute kennen."
    },
    {
      "id": 14,
      "question": "Beim Lesen von Sachbüchern bevorzuge ich",
      "answer1": "etwas, das mir neue Fakten beibringt oder mir sagt, was ich tun soll.",
      "answer2": "etwas, was mir neue Ideen zum Nachdenken bringt."
    },
    {
      "id": 15,
      "question": "Ich mag Lehrer,",
      "answer1": "die viele Diagramme an die Tafel hängen.",
      "answer2": "die viel Zeit mit erklären verbringen."
    },
    {
      "id": 16,
      "question": "Wenn ich eine Geschichte oder einen Roman analysiere,",
      "answer1": "denke ich an die Vorfälle und versuche sie zusammenzusetzen, um die Themen herauszufinden.",
      "answer2": "kenne ich nur die Themen, wenn ich zu ende gelesen habe."
    },
    {
      "id": 17,
      "question": "Wenn ich ein Problem bei den Hausaufgaben habe, ist es wahrscheinlicher, dass",
      "answer1": "ich sofort mit der Arbeit an der Lösung beginne.",
      "answer2": "ich zuerst probiere das Problem vollständig zu verstehen."
    },
    {
      "id": 18,
      "question": "Ich bevorzuge die Idee von",
      "answer1": "Gewissheit.",
      "answer2": "Theorie."
    },
    {
      "id": 19,
      "question": "Ich erinnere mich am besten an das,",
      "answer1": "was ich sehe.",
      "answer2": "was ich höre."
    },
    {
      "id": 20,
      "question": "Mir ist es wichtiger, dass ein Instruktor",
      "answer1": "das Material in klarer aufeinander folgenden Schritten anlegt.",
      "answer2": "das Gesamtbild übermittelt, sich mit dem Material aber auf andere Themen bezieht."
    },
    {
      "id": 21,
      "question": "Ich studiere lieber",
      "answer1": "in einer Lerngruppe.",
      "answer2": "alleine."
    },
    {
      "id": 22,
      "question": "Man schätzt mich eher ein als",
      "answer1": "vorsichtig im Umgang mit den Details meiner Arbeit.",
      "answer2": "kreativ in der Art wie ich meine Arbeit mache."
    },
    {
      "id": 23,
      "question": "Wenn ich eine Webgeschreibung zu einem neuen Ort erhalte, bevorzuge ich",
      "answer1": "eine Landkarte.",
      "answer2": "eine schriftliche Wegbeschreibung."
    },
    {
      "id": 24,
      "question": "Ich lerne",
      "answer1": "in einem ziemlich gleichmäßigem Tempo. Wenn ich hart lerne, werde ich es schaffen.",
      "answer2": "Ich lerne in Etappen. Ich bin anfangs sehr verwirrt und bis es plötzlich 'klickt'."
    },
    {
      "id": 25,
      "question": "Ich würde lieber zuerst",
      "answer1": "Dinge ausprobieren.",
      "answer2": "überlegen, wie ich etwas mache."
    },
    {
      "id": 26,
      "question": "Wenn ich zum Vergnügen lese, mag ich das bei Schriftstellern, die",
      "answer1": "deutlich sagen, was zu meinen.",
      "answer2": "Dinge auf kreative und interessante Weise ausdrücken."
    },
    {
      "id": 27,
      "question": "Wenn ich im Unterricht ein Diagramm oder eine Skizze sehe, erinnere ich mich am ehesten an",
      "answer1": "das Bild.",
      "answer2": "das, was der Lehrer gesagt hat."
    },
    {
      "id": 28,
      "question": "Wenn ich eine Menge von Informationen in Betracht ziehe, bin ich eher",
      "answer1": "auf die Details konzentriert und ignoriere zunächst das große Ganze.",
      "answer2": "auf das große Ganze konzentriert und gehe danach ins Detail."
    },
    {
      "id": 29,
      "question": "Ich erinnere mich leichter an",
      "answer1": "etwas, was ich getan habe.",
      "answer2": "etwas, worüber ich viel nachgedacht habe."
    },
    {
      "id": 30,
      "question": "Wenn ich eine Aufgabe erfüllen muss, bevorzuge ich es",
      "answer1": "einen einzigen Weg dafür zu perfektionieren.",
      "answer2": "neue Wege dafür herauszufinden."
    },
    {
      "id": 31,
      "question": "Wenn mir jemand Informationen zeigt, bevorzuge ich",
      "answer1": "Diagramme oder Grafiken.",
      "answer2": "Text, der die Ergebnisse zusammenfasst."
    },
    {
      "id": 32,
      "question": "Wenn ich an einer Arbeit schreibe, arbeite ich eher",
      "answer1": "strukturiert vom Anfang bis zum Ende an der Arbeit.",
      "answer2": "an mehreren Teilen gleichzeitig bis die Arbeit fertig ist."
    },
    {
      "id": 33,
      "question": "Wenn ich an einem Gruppenprojekt arbeiten muss, möchte ich zuerst",
      "answer1": "ein 'Gruppen-Brainstorming' haben bei dem jeder seine Ideen einbringt.",
      "answer2": "einzeln brainstormen und danach als Gruppe zusammen kommen, um die Ideen zu vergleichen."
    },
    {
      "id": 34,
      "question": "Ich empfinde es besser jemanden als",
      "answer1": "vernünftig zu bezeichnen.",
      "answer2": "fanatasievoll zu bezeichnen."
    },
    {
      "id": 35,
      "question": "Wenn ich Leute auf einer Party treffe, erinnere ich mich eher daran",
      "answer1": "wie sie aussahen.",
      "answer2": "was sie über sich selbst gesagt haben."
    },
    {
      "id": 36,
      "question": "Wenn ich ein neues Fach lerne, bevorzuge ich es",
      "answer1": "mich auf das Thema zu konzentrieren und möglichst viel darüber zu lernen.",
      "answer2": "die Verbindung zwischen dem Thema und weiteren verwandten Themen herzustellen."
    },
    {
      "id": 37,
      "question": "Ich werde eher als",
      "answer1": "aufgeschlossen eingeschätzt.",
      "answer2": "zurückhaltend eingeschätzt."
    },
    {
      "id": 38,
      "question": "Ich bevorzuge Kurse mit einem Fokus auf",
      "answer1": "konkretes Material (Fakten, Daten).",
      "answer2": "abstraktes Material (Konzepte, Theorien)."
    },
    {
      "id": 39,
      "question": "Zu Unterhaltung würde ich lieber",
      "answer1": "Fernsehen.",
      "answer2": "ein Buch lesen."
    },
    {
      "id": 40,
      "question": "Einige Lehrer beginnen ihre Vorlesungen mit einem Überblick über das, was sie behandeln werden. Sowas halte ich für",
      "answer1": "etwas hilfreich für mich.",
      "answer2": "sehr hilfreich für mich."
    },
    {
      "id": 41,
      "question": "Die Idee, dass Gruppenaufgaben mit einer Gesamtnote benotet werden, halte ich für",
      "answer1": "gut.",
      "answer2": "nicht gut."
    },
    {
      "id": 42,
      "question": "Wenn ich lange Berechnungen mache,",
      "answer1": "neige ich dazu alle meine Schritte zu wiederholen und meine Arbeit sorgfältig zu überprüfen.",
      "answer2": "finde ich es mühsam meine arbeit zu überprüfen und muss mich dazu zwingen."
    },
    {
      "id": 43,
      "question": " Ich neige dazu, mir Orte, an denen ich gewesen bin,",
      "answer1": "leicht und ziemlich genau vorzustellen.",
      "answer2": "nur schwer und ohne viele Details vorzustellen."
    },
    {
      "id": 44,
      "question": "Wenn ich Probleme in einer Gruppe löse, würde ich eher",
      "answer1": "an die Schritte im Lösungsprozess denken.",
      "answer2": "mögliche Konsequenzen oder Anwendungen der Lösung in einem breiten Spektrum von Bereichen."
    }
  ]
}
